%YAML 1.1
%TAG !u! tag:unity3d.com,2011:
--- !u!114 &11400000
MonoBehaviour:
  m_ObjectHideFlags: 0
  m_CorrespondingSourceObject: {fileID: 0}
  m_PrefabInstance: {fileID: 0}
  m_PrefabAsset: {fileID: 0}
  m_GameObject: {fileID: 0}
  m_Enabled: 1
  m_EditorHideFlags: 0
  m_Script: {fileID: 11500000, guid: 8d16f3b3120338645aa99bdc9a8306a2, type: 3}
  m_Name: EnemyMiddleLeft
  m_EditorClassIdentifier: 
  isStatic: 0
  speed: 2
  landingLocation: {x: -1.3, y: 3, z: 0}
  endLocation: {x: -1.3, y: -10, z: 0}
